{
    "title" : "Creativo",
    "features" : [
        {
            "title" : "Emociones",
            "description" : "acepta la agresión; se contiene al expresarse"
        },{
            "title" : "Meta",
            "description" : "dominio; logros únicos"
        },{
            "title" : "Juzga a los demás por",
            "description" : "sus estándares personales; sus ideas progresistas para realizar tareas"
        },{
            "title" : "Su valor para la organización",
            "description" : "inicia o diseña cambios"
        },{
            "title" : "Abusa de",
            "description" : "franqueza brusca; actitud crítica o condescendiente"
        },
        {
            "title" : "Descripción",
            "description": "Las personas con un Patrón Creativo muestran fuerzas opuestas en su comportamiento. Su deseo por obtener resultados tangibles se contrapone a un empuje igualmente poderoso por lograr la perfección. Su sensibilidad atenúa su agresividad. Aunque piensen y reaccionen rápidamente, se contienen por su deseo de explorar todas las soluciones posibles antes de tomar una decisión. Las personas Creativas muestran una gran capacidad de previsión cuando se centran en proyectos y generan cambios. Como son perfeccionistas y tienen una habilidad considerable para planear, los cambios que efectúan suelen ser apropiados aunque les puede faltar atención a las relaciones interpersonales. Las personas Creativas quieren libertad para explorar y tener la autoridad para examinar y verificar sus conclusiones. Pueden tomar decisiones diarias rápidamente pero pueden ser extremadamente cautelosos al tomar decisiones más importantes. '¿Debo aceptar ese ascenso?' '¿Debo trastear las operaciones a otro local?' En su ímpetu por obtener resultados y perfección, puede que a las personas Creativas no les importe mucho el decoro social. Como resultado, pueden ser frías, distantes o bruscas."
        }
    ]
}


