{
  "$schema": "https://developer.microsoft.com/json-schemas/spfx-build/package-solution.schema.json",
  "solution": {
    "name": "project-tls-client-side-solution",
    "id": "fc71999e-7e77-4eff-8cc3-1500997ca92b",
    "version": "1.0.0.0",
    "includeClientSideAssets": true,
    "isDomainIsolated": true,
    "developer": {
      "name": "",
      "websiteUrl": "",
      "privacyUrl": "",
      "termsOfUseUrl": "",
      "mpnId": ""
    }
  },
  "paths": {
    "zippedPackage": "solution/project-tls.sppkg"
  }
}
