{
    "title" : "Alentador",
    "features" : [
        {
            "title" : "Emociones",
            "description" : "acepta la agresión; aparenta no tener mucha necesidad de afecto"
        },{
            "title" : "Meta",
            "description" : "control de su ambiente o de sus oyentes"
        },{
            "title" : "Juzga a los demás por",
            "description" : "la forma como proyectan su fuerza personal, su carácter y su poder social"
        },{
            "title" : "Su valor para la organización",
            "description" : "actúa como un agente que 'mueve a la gente'; inicia, exige, felicita, llama al orden y sanciona"
        },{
            "title" : "Abusa de",
            "description" : "actitud de 'el fin justifica los medios'"
        },
        {
            "title" : "Descripción",
            "description": "Las personas con el Patrón Alentador intentan conscientemente modificar los pensamientos y acciones de los demás. Son astutos identificando y manipulando los motivos que cada individuo tiene, para así orientar el comportamiento de dicha persona hacia un fin predeterminado. Los Alentadores son claros sobre los resultados que desean pero a veces no los revelan de inmediato. Presentan los resultados que desean sólo después de haber preparado y predispuesto a la otra persona, otorgando autoridad a quienes buscan poder, ofreciendo su amistad a quienes desean ser aceptados y seguridad a los que desean un ambiente predecible. Los Alentadores pueden ser encantadores en sus interacciones. Son persuasivos para conseguir ayuda cuando deben terminar detalles repetitivos y que requieren mucho tiempo. Con frecuencia las personas experimentan sentimientos encontrados respecto a los Alentadores; por un lado, se sienten atraídas hacia ellos; por otro lado, se sienten curiosamente distanciadas de ellos. Otros se pueden sentir 'usados' por los poderes manipuladores de los Alentadores. Aunque a veces infunden temor en los demás y anulan sus decisiones, por lo general los Alentadores son estimados por sus compañeros de trabajo, pues emplean su habilidad de expresión verbal para persuadir a los demás siempre que les sea posible. Los Alentadores claramente prefieren lograr sus metas persuadiendo y logrando la cooperación de las personas, en vez de imponer su mando."

        }
    ]
}

