{
    "title" : "Consejero",
    "features" : [
        {
            "title" : "Emociones",
            "description" : "fácil de abordar; afectuoso y comprensivo"
        },{
            "title" : "Meta",
            "description" : "amistad; felicidad"
        },{
            "title" : "Juzga a los demás por",
            "description" : "su aceptación de otras personas; su habilidad para buscar el lado bueno de la gente"
        },{
            "title" : "Su valor para la organización",
            "description" : "estable y predecible; amplia esfera de amistades; disposición para escuchar los sentimientos de los demás"
        },{
            "title" : "Abusa de",
            "description" : "métodos indirectos de abordar asuntos; tolerancia"
        },
        {
            "title" : "Descripción",
            "description": "Los Consejeros son particularmente efectivos para resolver los problemas de las personas. Generan la admiración de los demás por su calidez, empatía y comprensión. Dado su optimismo, le resulta fácil advertir el lado bueno de los demás. Los Consejeros prefieren establecer relaciones duraderas para tratar con la gente. Al ser buenos para escuchar y mostrarse dispuestos a comprender los problemas de los demás, ofrecen sugerencias con suavidad y se abstienen de imponer sus ideas. Los Consejeros suelen ser demasiado tolerantes y pacientes con quienes no tienen niveles de rendimiento satisfactorios. Cuando están bajo presión, pueden presentar dificultades para confrontar problemas de desempeño. Posiblemente sean indirectos al dar órdenes, exigir o llamar a los demás al orden. Al adoptar la actitud de 'las personas son importantes', pueden darle menor énfasis al cumplimiento de tareas. A veces necesitan ayuda para establecer y cumplir fechas límites realistas. Con frecuencia los Consejeros toman la crítica como una afrenta personal, pero responden bien ante la atención y los elogios que reciben por trabajos terminados. Los Consejeros tienden a prestar mucha atención a la calidad de las condiciones de trabajo y otorgan el reconocimiento adecuado a los miembros de sus grupo."
        }
    ]
}




