{
    "title" : "Objetivo",
    "features" : [
        {
            "title" : "Emociones",
            "description" : "rechaza la agresión interpersonal"
        },{
            "title" : "Meta",
            "description" : "la exactitud"
        },{
            "title" : "Juzga a los demás por",
            "description" : "su habilidad para pensar con lógica"
        },{
            "title" : "Su valor para la organización",
            "description" : ""
        },{
            "title" : "Abusa de",
            "description" : "define y esclarece; obtiene, evalúa, y comprueba información"
        },
        {
            "title" : "Descripción",
            "description": "Los Objetivos suelen tener habilidades de pensamiento analítico muy desarrolladas. Recalcan la importancia que tienen los datos al sacar conclusiones y planear acciones. Buscan la precisión y estar correctos en todo lo que hacen. Para manejar sus actividades laborales efectivamente, con frecuencia los Objetivos combinan la información intuitiva con los datos que han reunido. Cuando tiene dudas sobre un curso de acción, evitan el fracaso público mediante una preparación meticulosa. Por ejemplo, los Objetivos dominarán una nueva habilidad en privado antes de emplearla en una actividad de grupo. Los Objetivos prefieren trabajar con personas que, al igual que ellos, están interesadas en mantener un ambiente de trabajo apacible. Puesto que pueden mostrarse renuentes a expresar sus sentimientos, algunas personas los pueden considerar tímidos. Se sienten particularmente incómodos con personas agresivas. Aunque tienen modales suaves, los Objetivos tienen una fuerte necesidad de controlar su ambiente. Tienden a ejercer este control indirectamente, requiriéndole a los demás que se adhieran a las reglas y estándares. Los Objetivos se centran en obtener la respuesta 'correcta' y pueden tener problemas decidiendo en situaciones ambiguas. Por su tendencia a preocuparse, pueden estancarse en una 'parálisis de análisis'. Cuando cometen un error, con frecuencia se muestran renuentes a reconocer el hecho. En vez, se sumergen en una búsqueda de información que pueda sustentar su postura."

        }
    ]
}


