{
    "title" : "Especialista",
    "features" : [
        {
            "title" : "Emociones",
            "description" : "moderación calculada; afán de servir, hacer sentir a los demás cómodos y adaptarse a ellos"
        },{
            "title" : "Meta",
            "description" : "conservar el orden establecido; tener un ambiente controlado"
        },{
            "title" : "Juzga a los demás por",
            "description" : "estándares de amistad; su capacidad"
        },{
            "title" : "Su valor para la organización",
            "description" : "planea a corto plazo; es predecible, consistente; mantiene un ritmo constante"
        },{
            "title" : "Abusa de",
            "description" : "su modestia; su renuencia a tomar riesgos; su resistencia pasiva ante la innovación"
        },
        {
            "title" : "Descripción",
            "description": "Los Especialistas se 'llevan bien' con los demás. Por su actitud moderada y controlada y su comportamiento modesto, son pueden trabajar bien con personas que tienen diversos estilos de comportamiento. Los Especialistas son considerados, pacientes y siempre están dispuestos a ayudar a quienes consideran sus amigos. Establecen relaciones estrechas con un grupo relativamente pequeño de compañeros en su entorno laboral. Se esfuerzan por conservar los patrones familiares y predecibles. Cuando más efectivos son es cuando trabajan en  áreas especializadas. Por lo tanto, planean su trabajo según canales establecidos y logran un desempeño notoriamente  consistente. El aprecio que recibe de los demás les ayuda a mantener ese nivel de consistencia.  Los Especialistas son lentos para adaptarse a los cambios. Una preparación previa les da el tiempo que requieren para cambiar sus procedimientos y conservar a la vez su nivel de rendimiento consistente. Los Especialistas también pueden requerir ayuda en el momento de dar inicio a proyectos nuevos y para poder desarrollar métodos más sencillos y rápidos que le ayuden a cumplir con las fechas de entrega. Suelen poner a un lado los proyectos terminados para revisarlos más. Los Especialistas deberían considerar botar esos archivos viejos que ya dejaron de ser útiles."
        }
    ]
}

