{
    "title" : "Orientado a Resultados",
    "features" : [
        {
            "title" : "Emociones",
            "description" : "verbaliza lo que quiere de manera resuelta; muestra un individualismo inquebrantable"
        },{
            "title" : "Meta",
            "description" : "dominio e independencia"
        },{
            "title" : "Juzga a los demás por",
            "description" : "su habilidad para efectuar tareas rápidamente"
        },{
            "title" : "Su valor para la organización",
            "description" : "persistencia; tenacidad"
        },{
            "title" : "Abusa de",
            "description" : "su impaciencia; sentido competitivo concebido en términos de 'si una parte gana, la otra tiene que perder'"
        },
        {
            "title" : "Descripción",
            "description": "Las personas Orientadas a Resultados muestran una autoconfianza que algunos pueden interpretar como arrogancia. Buscan activamente oportunidades que pongan a prueba y desarrollen sus habilidades para lograr resultados. A estas personas les agradan las tareas difíciles, las situaciones competitivas, las asignaciones únicas y los cargos 'importantes'. Asumen responsabilidades con un aire presumido y muestran satisfacción en sí mismos cuando terminan. Las personas Orientadas a Resultados tienden a evitar factores que los restrinjan tales como controles directos, detalles que requieren de mucho tiempo y trabajos rutinarios. Puesto que son enérgicos y directos, pueden tener problemas con otros. La independencia es muy preciada para estas personas, por lo que se pueden impacientar al verse involucrados en actividades de grupo o en comités. Aunque por lo general las personas Orientadas a Resultados prefieren trabajar solas, pueden persuadir a otros para que brinden apoyo a sus esfuerzos, especialmente cuando deben efectuar actividades  de rutina. Las personas Orientadas a Resultados son rápidas de pensamiento. Paralelamente, son impacientes con quienes no lo son y se centran en encontrarles errores. Evalúan a los demás según su habilidad para obtener resultados. Las personas Orientadas a Resultados son tenaces y persistentes, incluso frente al antagonismo. Cuando resulta necesario, se hacen cargo de una situación aunque no les corresponda. En su ímpetu tenaz por obtener resultados, pueden parecer bruscos e indiferentes."

        }
    ]
}

