{
    "title" : "Realizador",
    "features" : [
        {
            "title" : "Emociones",
            "description" : "Desapasionado, Autodisciplinado"
        },{
            "title" : "Meta",
            "description" : "El poder que generan la autoridad, la posición y los roles formales"
        },{
            "title" : "Juzga a los demás por",
            "description" : "El uso de la información objetiva"
        },{
            "title" : "Su valor para la organización",
            "description" : "Seguimiento concienzudo para realizar su trabajo en forma constante y persistente, sea individual o en grupos pequeños"
        },{
            "title" : "Abusa de",
            "description" : "La franqueza; su desconfianza hacia los demás"
        },
        {
            "title" : "Descripción",
            "description": "The motivación de los Realizadores proviene primordialmente de sí mismos y surge de metas personales muy importantes para ellos. Su compromiso con sus propias metas le impide aceptar las metas del grupo de manera automática e incondicional. Los Realizadores necesitan ver cómo pueden combinar sus metas personales con aquellas metas de la organización. Como han ejercido control sobre los aspectos más importantes de sus vidas, tienen un fuerte sentido de responsabilidad.Los Realizadores demuestran mucho interés por su trabajo y un continuo e intenso afán por conquistar sus logros. Tienen una alta opinión de su trabajo y cuando están bajo presión pueden mostrarse renuentes a delegar tareas. En vez, asumen el trabajo por sí solos para asegurarse que las cosas queden bien hechas. Cuando delegan, presentan la tendencia de objetar la tarea presentada si ésta no cumple con sus expectativas. Su premisa rectora es: Si tengo éxito, merezco el crédito, pero si fracaso, asumo la responsabilidad. Un Realizador debe comunicarse más con los demás para ampliar su manera de pensar más allá del 'tengo que hacerlo por mí mismo' o el 'quiero todo el crédito para mí'. Es posible que necesiten ayuda para encontrar nuevos métodos de lograr sus resultados deseados. Los Realizadores funcionan al máximo de su capacidad y esperan un reconocimiento equivalente a su contribución, mediante sueldos elevados en ciertas organizaciones y en otras con cargos de liderazgo."
        }
    ]
}